{
  "COLORS": {
    "WHITE_1": "#FFFFFF",
    "BLACK_1": "#000000",
    "BLACK_2": "#747474",
    "RED_1": "#ff0000",
    "RED_2": "#FF5E5E",
    "BLUE_1": "#1F4181",
    "BLUE_2": "#00B0F0",
    "BLUE_3": "#DBEAF7",
    "BLUE_4": "#E9F1FF",
    "BLUE_5": "#6ABAFF",
    "BLUE_6": "#F4F7FC",
    "BLUE_7": "#D4E3FF",
    "YELLOW_1": "#FFC000",
    "YELLOW_2": "#FFF700",
    "YELLOW_3": "#FFC100",
    "GREEN_1": "#92D050",
    "GREEN_2": "#00B050",
    "GREEN_3": "#15D200",
    "GREEN_4": "#16B51A",
    "GREEN_5": "#91D04E",
    "ORANGE_1": "#FFA500",
    "GRAY_1": "#AEAEAE",
    "GRAY_2": "#808080",
    "GRAY_3": "#777777",
    "GRAY_4": "#D1D1D1",
    "GRAY_5": "#5B5C5D",
    "GRAY_6": "#C1C1C1",
    "GRAY_7": "#949494",
    "GRAY_8": "#D2D2D2",
    "GRAY_9": "#F3F3F3",
    "GRAY_10": "#979797",
    "GRAY_11": "#828282",
    "GRAY_12": "#BEBEBE",
    "GOLD_1": "#DAA520"
  },
  
  "SCREENS": {
    "DESKTOP": "1440px",
    "TABLET": "1024px",
    "MOBILE": "478px"
  },
  "ETC": {
    "HEADER_HEIGHT": "100px"
  },
  "FONT": {
    "STYLE": {
      "LIGHT": "prompt_light",
      "REGULAR": "prompt_regular",
      "MEDIUM": "prompt_medium",
      "SEMIBOLD": "prompt_semibold",
      "BOLD": "prompt_bold"
    },
    "SIZE": {
      "S7": "7px",
      "S8": "8px",
      "S9": "9px",
      "S10": "10px",
      "S11": "11px",
      "S12": "12px",
      "S13": "13px",
      "S14": "14px",
      "S15": "15px",
      "S16": "16px",
      "S17": "17px",
      "S18": "18px",
      "S19": "19px",
      "S20": "20px",
      "S21": "21px",
      "S22": "22px",
      "S23": "23px",
      "S24": "24px",
      "S25": "25px",
      "S26": "26px",
      "S28": "28px",
      "S30": "30px",
      "S32": "32px",
      "S34": "34px",
      "S35": "35px",
      "S36": "36px",
      "S38": "38px",
      "S40": "40px",
      "S42": "42px",
      "S45": "45px",
      "S48": "48px",
      "S50": "50px",
      "S54": "54px",
      "S56": "56px",
      "S61": "61px",
      "S72": "72px",
      "S77": "77px",
      "S108": "108px"
    }
  }
}